com\enh\mobile\page\Globalsearch.class
com\enh\framework\core\BaseTest.class
com\enh\framework\core\Machine.class
com\enh\framework\testreports\ReportManager.class
com\enh\framework\testreports\TestSuite.class
com\enh\framework\core\Driverfactory.class
com\enh\framework\core\Configuration.class
com\enh\framework\core\ExecutionEngine.class
com\enh\mobile\page\DailerPage.class
com\enh\framework\core\Utilities.class
com\enh\framework\core\EnvironmentInfo.class
com\enh\mobile\page\MycardsPage.class
com\enh\testscripts\IntouchApp\TestRunner.class
com\enh\framework\core\OSInfo.class
com\enh\mobile\page\ConformationPage.class
com\enh\mobile\page\Contactlistingpage.class
com\enh\mobile\page\RegistraionPage.class
com\enh\testscripts\IntouchApp\StepDefinitions.class
com\enh\framework\core\DateAdapter.class
com\enh\mobile\page\ContactsPage.class
com\enh\testscripts\IntouchApp\Actionwords.class
com\enh\framework\testreports\TestStep.class
com\enh\mobile\page\Addnewcontact.class
com\enh\mobile\page\HomePage.class
com\enh\mobile\page\Miscpage.class
com\enh\framework\testreports\package-info.class
com\enh\framework\testreports\Testcase.class
com\enh\framework\core\BaseTest$1.class
